…
# 6\. Flows

## 6.1 Origins and Destinations

In the second part of the practical we will look at commuting flows
between MSOAs by bike and identify opportunities for extending the cycle
network in Leeds

Recall that the `temp` variable combines the spatial data and the
cycling data. The rows are are each origin and the LSOA coded columns
are the destinations with other variables:

``` r
as_tibble(temp[1:4])
#> # A tibble: 107 x 5
#>    ruc11       ruc11cd label     name                             geometry
#>    <fct>       <fct>   <fct>     <fct>                       <POLYGON [m]>
#>  1 Urban city… C1      E0800003… Leed… ((440369.2 449848, 440386.5 449822…
#>  2 Urban city… C1      E0800003… Leed… ((443381.7 450063.5, 443376 450051…
#>  3 Urban majo… A1      E0800003… Leed… ((419488.2 446933.7, 419494 446933…
#>  4 Urban majo… A1      E0800003… Leed… ((422941.2 446149.6, 422943 446135…
#>  5 Rural town… D1      E0800003… Leed… ((442102 446256, 442102 446216, 44…
#>  6 Rural vill… E1      E0800003… Leed… ((438056.3 448191.8, 438105.3 4481…
#>  7 Rural town… D1      E0800003… Leed… ((428851.2 445382.2, 428861.3 4453…
#>  8 Urban majo… A1      E0800003… Leed… ((414959.3 443688.3, 414987 443671…
#>  9 Urban majo… A1      E0800003… Leed… ((418635 442559, 418637.6 442552.9…
#> 10 Urban majo… A1      E0800003… Leed… ((420442.4 442436.7, 420443.3 4424…
#> # ... with 97 more rows
```
…
